Assignment 5
…
I have a parsing failure in latitude and length_of_encounter due to a trailing character but I wont worry about that now because there arent that many.

Question 2

Now that you have your data imported, select one variable in your data set, and perform a (very basic and preliminary) exploratory analysis of that variable. You might produce a graph of the distribution, or produce some summary statistics, or make a table.

I want to see what shapes and how many of each are in the UFO_shape column.

ufo_data %>%
  count(UFO_shape)

## # A tibble: 30 x 2
##    UFO_shape     n
##    <chr>     <int>
##  1 changed       1
##  2 changing   1962
##  3 chevron     952
##  4 cigar      2057
##  5 circle     7608
##  6 cone        316
##  7 crescent      2
##  8 cross       233
##  9 cylinder   1283
## 10 delta         7
## #  with 20 more rows
…
